<svg width="24" height="24" viewBox="0 0 24 24" fill="none" xmlns="http://www.w3.org/2000/svg">
<path d="M18.9801 8.068L12.9779 4.11618C12.8243 4.03975 12.6552 4 12.4839 4C12.3125 4 12.1435 4.03975 11.9898 4.11618L5.01807 8.068C4.71362 8.2184 4.45695 8.45163 4.27705 8.74136C4.09715 9.03108 4.00119 9.36575 4 9.70757V18.1671C4 19.1793 4.82445 20 5.84161 20H18.1584C19.1755 20 20 19.1793 20 18.1671V9.70757C19.9986 9.36556 19.9024 9.03075 19.7222 8.74101C19.5419 8.45126 19.2849 8.21814 18.9801 8.068Z" stroke="#808B9D" stroke-width="1.6" stroke-linecap="round" stroke-linejoin="round"/>
<path d="M19 17L12.7165 12.2394C12.5117 12.0842 12.2597 12 12.0002 12C11.7408 12 11.4888 12.0842 11.284 12.2394L5 17" stroke="#808B9D" stroke-width="1.6" stroke-linecap="round" stroke-linejoin="round"/>
<path d="M14.5 13L19.5 9" stroke="#808B9D" stroke-width="1.6" stroke-linecap="round" stroke-linejoin="round"/>
<path d="M9.5 13L4.5 9" stroke="#808B9D" stroke-width="1.6" stroke-linecap="round" stroke-linejoin="round"/>
</svg>
