<?xml version="1.0" encoding="utf-8"?>
<!-- Generator: Adobe Illustrator 17.0.0, SVG Export Plug-In . SVG Version: 6.00 Build 0)  -->
<!DOCTYPE svg PUBLIC "-//W3C//DTD SVG 1.1//EN" "http://www.w3.org/Graphics/SVG/1.1/DTD/svg11.dtd">
<svg version="1.1" id="Layer_1" xmlns="http://www.w3.org/2000/svg" xmlns:xlink="http://www.w3.org/1999/xlink" x="0px" y="0px"
	 width="595.554px" height="331.372px" viewBox="-0.274 255.259 595.554 331.372"
	 enable-background="new -0.274 255.259 595.554 331.372" xml:space="preserve">
<path fill="#FF5038" d="M372.381,429.213l66.142-64.819c1.323-1.323,1.984-3.969,1.323-5.953s-2.646-3.307-4.63-3.969
	l-91.938-13.228l-40.347-82.678c-1.323-1.984-3.307-3.307-5.291-3.307s-3.969,1.323-5.291,3.307l-41.008,83.339l-91.938,13.228
	c-1.984,0-3.969,1.984-4.63,3.969c-0.661,1.984,0,4.63,1.323,5.953l66.142,64.819l-15.874,91.276
	c-0.661,1.984,0.661,4.63,1.984,5.953c1.323,0.661,1.984,1.323,3.307,1.323c0.661,0,1.984,0,2.646-0.661l83.339-43.654
	l82.016,42.992c1.984,1.323,4.63,0.661,5.953-0.661c1.984-1.323,2.646-3.307,1.984-5.953L372.381,429.213z"/>
<path opacity="0.5" fill="#FF988A" enable-background="new    " d="M595.28,481.465c-0.661-1.323-1.323-1.984-2.646-2.646
	l-57.544-8.598l-25.796-51.591c-0.661-1.323-1.984-1.984-3.307-1.984s-2.646,0.661-3.307,1.984l-25.795,52.252l-57.544,8.598
	c-1.323,0-2.646,1.323-2.646,2.646c-0.661,1.323,0,2.646,0.661,3.969l41.67,40.347l-9.26,56.221c0,1.323,0.661,2.646,1.323,3.307
	c0.661,0.661,1.323,0.661,1.984,0.661s1.323,0,1.984-0.661l51.591-27.118l51.591,27.118c1.323,0.661,2.646,0.661,3.969,0
	s1.984-1.984,1.323-3.307l-9.921-56.882l41.67-40.347C595.28,484.111,595.28,482.788,595.28,481.465z"/>
<path opacity="0.5" fill="#FF988A" enable-background="new    " d="M175.277,478.819l-57.544-8.598L92.599,418.63
	c-0.661-1.323-1.984-1.984-3.307-1.984s-2.646,0.661-3.307,1.984L60.19,470.882L2.646,479.48c-1.323,0-2.646,1.323-2.646,2.646
	c-0.661,1.323,0,2.646,0.661,3.969l41.67,40.347l-9.26,56.221c0,1.323,0,2.646,1.323,3.307c0.661,0.661,1.323,0.661,1.984,0.661
	s1.323,0,1.984-0.661l51.591-27.118l51.591,27.118c1.323,0.661,2.646,0.661,3.969,0s1.984-1.984,1.323-3.307l-9.921-56.882
	l41.67-40.347c0.661-0.661,1.323-2.646,0.661-3.969C177.923,480.142,176.6,478.819,175.277,478.819z"/>
</svg>
