<?xml version="1.0" encoding="utf-8"?>
<!-- Generator: Adobe Illustrator 17.0.0, SVG Export Plug-In . SVG Version: 6.00 Build 0)  -->
<!DOCTYPE svg PUBLIC "-//W3C//DTD SVG 1.1//EN" "http://www.w3.org/Graphics/SVG/1.1/DTD/svg11.dtd">
<svg version="1.1" id="Слой_1" xmlns="http://www.w3.org/2000/svg" xmlns:xlink="http://www.w3.org/1999/xlink" x="0px" y="0px"
	 width="285.592px" height="273.167px" viewBox="0 0 285.592 273.167" enable-background="new 0 0 285.592 273.167"
	 xml:space="preserve">
<path fill="#498DCD" d="M217.867,173.954l66.142-64.819c1.323-1.323,1.984-3.969,1.323-5.953s-2.646-3.307-4.63-3.969
	l-91.938-13.228L148.417,3.307C147.094,1.323,145.11,0,143.126,0s-3.969,1.323-5.291,3.307L96.827,86.646L4.889,99.874
	c-1.984,0-3.969,1.984-4.63,3.969c-0.661,1.984,0,4.63,1.323,5.953l66.142,64.819L51.85,265.891
	c-0.661,1.984,0.661,4.63,1.984,5.953c1.323,0.661,1.984,1.323,3.307,1.323c0.661,0,1.984,0,2.646-0.661l83.339-43.654
	l82.016,42.992c1.984,1.323,4.63,0.661,5.953-0.661c1.984-1.323,2.646-3.307,1.984-5.953L217.867,173.954z"/>
</svg>
