<?xml version="1.0" encoding="utf-8"?>
<!-- Generator: Adobe Illustrator 17.0.0, SVG Export Plug-In . SVG Version: 6.00 Build 0)  -->
<!DOCTYPE svg PUBLIC "-//W3C//DTD SVG 1.1//EN" "http://www.w3.org/Graphics/SVG/1.1/DTD/svg11.dtd">
<svg version="1.1" id="Layer_1" xmlns="http://www.w3.org/2000/svg" xmlns:xlink="http://www.w3.org/1999/xlink" x="0px" y="0px"
	 width="595.28px" height="174.997px" viewBox="0 333.447 595.28 174.997" enable-background="new 0 333.447 595.28 174.997"
	 xml:space="preserve">
<g>
	<g>
		<path fill="#757F8F" d="M0,505.27h33.437V381.528H0V505.27z M33.193,334.667H0v32.949h33.193V334.667z M158.156,414.233v-0.732
			c15.132-7.566,19.769-21.966,19.769-31.729c0-31.241-23.43-48.325-52.963-48.325H68.827V505.27h55.647
			c30.997,0,60.285-13.18,60.285-51.986C184.759,437.908,176.949,421.067,158.156,414.233z M103.24,362.735h21.722
			c13.424,0,19.525,9.275,19.525,18.549c0,10.251-6.834,18.305-19.525,19.037H103.24V362.735z M124.962,474.274H103.24v-44.176
			h21.722c17.085,0,26.115,10.251,26.115,22.454C151.078,464.999,142.535,474.274,124.962,474.274z M470.074,428.633
			c-2.197-0.488-4.393-0.732-6.834-1.464c-4.149-1.22-8.298-4.637-8.298-8.786c0-7.81,9.03-11.959,14.644-11.959
			c6.834,0,15.376,2.441,24.163,9.03l17.817-18.061c-14.4-14.888-29.044-19.281-41.736-19.281
			c-23.674,0-46.373,13.668-46.373,39.051c0.244,23.919,21.234,36.366,41.491,40.027c6.346,1.22,15.864,2.441,15.864,11.471
			c0,6.59-8.298,11.227-14.888,10.983c-10.739-0.488-21.966-5.369-29.776-14.4l-17.817,19.037
			c13.424,17.817,30.997,24.163,47.105,24.163c20.502,0,48.325-10.495,48.325-39.783
			C513.762,444.009,491.551,432.294,470.074,428.633z M595.28,408.131v-26.603h-22.21V345.65l-32.461,3.661v32.217H522.06v26.603
			h18.549v57.356c-1.22,32.949,24.651,44.908,54.671,39.783v-28.312c-14.156,1.953-22.21-4.149-22.21-12.203v-56.624L595.28,408.131
			L595.28,408.131z"/>
	</g>
</g>
<linearGradient id="SVGID_1_" gradientUnits="userSpaceOnUse" x1="158.1904" y1="-556.5966" x2="330.1948" y2="-556.5966" gradientTransform="matrix(1.2203 0 0 -1.2203 0.0182 -234.7778)">
	<stop  offset="0" style="stop-color:#A61A9F"/>
	<stop  offset="1" style="stop-color:#FE0456"/>
</linearGradient>
<path fill="url(#SVGID_1_)" d="M345.111,470.003c-7.2,0.488-14.156-3.051-18.305-9.275c-1.708-2.563-3.295-5.125-4.759-7.81l0,0
	l-0.244-0.366c-1.098-1.953-2.319-4.393-3.905-7.322c-6.224-13.912-13.424-27.214-21.722-39.905
	c-10.739-15.01-27.458-23.675-45.152-23.186c-31.973,0-57.966,27.824-57.966,62.115s25.993,62.115,57.966,62.115
	c13.912,0,27.336-5.369,37.83-15.01l-17.329-34.047c-6.712,12.081-21.234,16.108-32.583,9.03c-11.349-7.2-15.132-22.82-8.42-34.902
	c4.271-7.81,12.081-12.569,20.502-12.569c7.2-0.488,14.156,3.051,18.305,9.275c1.708,2.563,3.295,5.125,4.759,7.81l0.244,0.366
	c1.098,1.953,2.441,4.393,3.905,7.322c6.224,13.912,13.424,27.214,21.6,39.905c10.739,15.01,27.458,23.675,45.152,23.186
	c31.973,0,57.966-27.824,57.966-62.115s-25.993-62.115-57.966-62.115c-13.912,0-27.336,5.369-37.83,15.01l17.451,34.047
	c1.22-2.075,2.685-4.027,4.271-5.736c9.641-9.519,24.651-8.908,33.681,1.342c8.908,10.373,8.42,26.481-1.22,36
	C356.826,467.562,351.091,470.003,345.111,470.003L345.111,470.003z"/>
</svg>
